{
    "interactive":{
		"data-max-bc-num-hours": 24,
		"data-max-num-cpus": 16,
		"data-max-num-mem": 64,
		"data-max-num-gpus": 2
    },

	"normal":{
		"data-max-bc-num-hours": 168,
		"data-max-num-cpus": 124,
		"data-max-num-mem": 3000,
		"data-max-num-gpus": 2
    },

    "iiplab":{
		"data-max-bc-num-hours": 168,
		"data-max-num-cpus": 52,
		"data-max-num-mem": 175,
		"data-max-num-gpus": 2
    },

    "cfdlab":{
		"data-max-bc-num-hours": 168,
		"data-max-num-cpus": 52,
		"data-max-num-mem": 175,
		"data-max-num-gpus": 2
    },

    "cfdlab-debug":{
		"data-max-bc-num-hours": 168,
		"data-max-num-cpus": 52,
		"data-max-num-mem": 175,
		"data-max-num-gpus": 2
    },

    "cblab":{
		"data-max-bc-num-hours": 168,
		"data-max-num-cpus": 60,
		"data-max-num-mem": 364,
		"data-max-num-gpus": 0,
		"data-set-num-gpus": 0,
		"data-hide-num-gpus": true
    }
}